^D:\AAA - FACULTATE\FACULTATE ANUL II\WORKSPACE ACC\TEMA-2-SHORTEST-PATH-ALGORITHM\TEMA-2-SHORTEST-PATH-ALGORITHM\MAIN.CPP|D:\AAA - FACULTATE\FACULTATE ANUL II\WORKSPACE ACC\TEMA-2-SHORTEST-PATH-ALGORITHM\TEMA-2-SHORTEST-PATH-ALGORITHM\MAPGRAPH.CPP|D:\AAA - FACULTATE\FACULTATE ANUL II\WORKSPACE ACC\TEMA-2-SHORTEST-PATH-ALGORITHM\TEMA-2-SHORTEST-PATH-ALGORITHM\POINT.CPP
D:\AAA - FACULTATE\FACULTATE ANUL II\WORKSPACE ACC\TEMA-2-SHORTEST-PATH-ALGORITHM\TEMA-2-SHORTEST-PATH-ALGORITHM\X64\DEBUG\VC142.PDB
D:\AAA - FACULTATE\FACULTATE ANUL II\WORKSPACE ACC\TEMA-2-SHORTEST-PATH-ALGORITHM\TEMA-2-SHORTEST-PATH-ALGORITHM\X64\DEBUG\VC142.IDB
D:\AAA - FACULTATE\FACULTATE ANUL II\WORKSPACE ACC\TEMA-2-SHORTEST-PATH-ALGORITHM\TEMA-2-SHORTEST-PATH-ALGORITHM\X64\DEBUG\POINT.OBJ
D:\AAA - FACULTATE\FACULTATE ANUL II\WORKSPACE ACC\TEMA-2-SHORTEST-PATH-ALGORITHM\TEMA-2-SHORTEST-PATH-ALGORITHM\X64\DEBUG\MAIN.OBJ
^D:\AAA - FACULTATE\FACULTATE ANUL II\WORKSPACE ACC\TEMA-2-SHORTEST-PATH-ALGORITHM\TEMA-2-SHORTEST-PATH-ALGORITHM\EDGE.CPP|D:\AAA - FACULTATE\FACULTATE ANUL II\WORKSPACE ACC\TEMA-2-SHORTEST-PATH-ALGORITHM\TEMA-2-SHORTEST-PATH-ALGORITHM\MAIN.CPP|D:\AAA - FACULTATE\FACULTATE ANUL II\WORKSPACE ACC\TEMA-2-SHORTEST-PATH-ALGORITHM\TEMA-2-SHORTEST-PATH-ALGORITHM\MAPGRAPH.CPP|D:\AAA - FACULTATE\FACULTATE ANUL II\WORKSPACE ACC\TEMA-2-SHORTEST-PATH-ALGORITHM\TEMA-2-SHORTEST-PATH-ALGORITHM\POINT.CPP
D:\AAA - FACULTATE\FACULTATE ANUL II\WORKSPACE ACC\TEMA-2-SHORTEST-PATH-ALGORITHM\TEMA-2-SHORTEST-PATH-ALGORITHM\X64\DEBUG\VC142.PDB
D:\AAA - FACULTATE\FACULTATE ANUL II\WORKSPACE ACC\TEMA-2-SHORTEST-PATH-ALGORITHM\TEMA-2-SHORTEST-PATH-ALGORITHM\X64\DEBUG\VC142.IDB
D:\AAA - FACULTATE\FACULTATE ANUL II\WORKSPACE ACC\TEMA-2-SHORTEST-PATH-ALGORITHM\TEMA-2-SHORTEST-PATH-ALGORITHM\X64\DEBUG\POINT.OBJ
D:\AAA - FACULTATE\FACULTATE ANUL II\WORKSPACE ACC\TEMA-2-SHORTEST-PATH-ALGORITHM\TEMA-2-SHORTEST-PATH-ALGORITHM\X64\DEBUG\MAPGRAPH.OBJ
D:\AAA - FACULTATE\FACULTATE ANUL II\WORKSPACE ACC\TEMA-2-SHORTEST-PATH-ALGORITHM\TEMA-2-SHORTEST-PATH-ALGORITHM\X64\DEBUG\MAIN.OBJ
D:\AAA - FACULTATE\FACULTATE ANUL II\WORKSPACE ACC\TEMA-2-SHORTEST-PATH-ALGORITHM\TEMA-2-SHORTEST-PATH-ALGORITHM\X64\DEBUG\EDGE.OBJ
^D:\AAA - FACULTATE\FACULTATE ANUL II\WORKSPACE ACC\TEMA-2-SHORTEST-PATH-ALGORITHM\TEMA-2-SHORTEST-PATH-ALGORITHM\EDGE.CPP|D:\AAA - FACULTATE\FACULTATE ANUL II\WORKSPACE ACC\TEMA-2-SHORTEST-PATH-ALGORITHM\TEMA-2-SHORTEST-PATH-ALGORITHM\MAIN.CPP|D:\AAA - FACULTATE\FACULTATE ANUL II\WORKSPACE ACC\TEMA-2-SHORTEST-PATH-ALGORITHM\TEMA-2-SHORTEST-PATH-ALGORITHM\MAPGRAPH.CPP
D:\AAA - FACULTATE\FACULTATE ANUL II\WORKSPACE ACC\TEMA-2-SHORTEST-PATH-ALGORITHM\TEMA-2-SHORTEST-PATH-ALGORITHM\X64\DEBUG\VC142.PDB
D:\AAA - FACULTATE\FACULTATE ANUL II\WORKSPACE ACC\TEMA-2-SHORTEST-PATH-ALGORITHM\TEMA-2-SHORTEST-PATH-ALGORITHM\X64\DEBUG\VC142.IDB
D:\AAA - FACULTATE\FACULTATE ANUL II\WORKSPACE ACC\TEMA-2-SHORTEST-PATH-ALGORITHM\TEMA-2-SHORTEST-PATH-ALGORITHM\X64\DEBUG\MAPGRAPH.OBJ
D:\AAA - FACULTATE\FACULTATE ANUL II\WORKSPACE ACC\TEMA-2-SHORTEST-PATH-ALGORITHM\TEMA-2-SHORTEST-PATH-ALGORITHM\X64\DEBUG\MAIN.OBJ
D:\AAA - FACULTATE\FACULTATE ANUL II\WORKSPACE ACC\TEMA-2-SHORTEST-PATH-ALGORITHM\TEMA-2-SHORTEST-PATH-ALGORITHM\X64\DEBUG\EDGE.OBJ
^D:\AAA - FACULTATE\FACULTATE ANUL II\WORKSPACE ACC\TEMA-2-SHORTEST-PATH-ALGORITHM\TEMA-2-SHORTEST-PATH-ALGORITHM\EDGE.CPP
D:\AAA - FACULTATE\FACULTATE ANUL II\WORKSPACE ACC\TEMA-2-SHORTEST-PATH-ALGORITHM\TEMA-2-SHORTEST-PATH-ALGORITHM\X64\DEBUG\VC142.PDB
D:\AAA - FACULTATE\FACULTATE ANUL II\WORKSPACE ACC\TEMA-2-SHORTEST-PATH-ALGORITHM\TEMA-2-SHORTEST-PATH-ALGORITHM\X64\DEBUG\VC142.IDB
D:\AAA - FACULTATE\FACULTATE ANUL II\WORKSPACE ACC\TEMA-2-SHORTEST-PATH-ALGORITHM\TEMA-2-SHORTEST-PATH-ALGORITHM\X64\DEBUG\EDGE.OBJ
^D:\AAA - FACULTATE\FACULTATE ANUL II\WORKSPACE ACC\TEMA-2-SHORTEST-PATH-ALGORITHM\TEMA-2-SHORTEST-PATH-ALGORITHM\POINT.CPP
D:\AAA - FACULTATE\FACULTATE ANUL II\WORKSPACE ACC\TEMA-2-SHORTEST-PATH-ALGORITHM\TEMA-2-SHORTEST-PATH-ALGORITHM\X64\DEBUG\VC142.PDB
D:\AAA - FACULTATE\FACULTATE ANUL II\WORKSPACE ACC\TEMA-2-SHORTEST-PATH-ALGORITHM\TEMA-2-SHORTEST-PATH-ALGORITHM\X64\DEBUG\VC142.IDB
D:\AAA - FACULTATE\FACULTATE ANUL II\WORKSPACE ACC\TEMA-2-SHORTEST-PATH-ALGORITHM\TEMA-2-SHORTEST-PATH-ALGORITHM\X64\DEBUG\POINT.OBJ
^D:\AAA - FACULTATE\FACULTATE ANUL II\WORKSPACE ACC\TEMA-2-SHORTEST-PATH-ALGORITHM\TEMA-2-SHORTEST-PATH-ALGORITHM\MAIN.CPP|D:\AAA - FACULTATE\FACULTATE ANUL II\WORKSPACE ACC\TEMA-2-SHORTEST-PATH-ALGORITHM\TEMA-2-SHORTEST-PATH-ALGORITHM\MAPGRAPH.CPP
D:\AAA - FACULTATE\FACULTATE ANUL II\WORKSPACE ACC\TEMA-2-SHORTEST-PATH-ALGORITHM\TEMA-2-SHORTEST-PATH-ALGORITHM\X64\DEBUG\VC142.PDB
D:\AAA - FACULTATE\FACULTATE ANUL II\WORKSPACE ACC\TEMA-2-SHORTEST-PATH-ALGORITHM\TEMA-2-SHORTEST-PATH-ALGORITHM\X64\DEBUG\VC142.IDB
D:\AAA - FACULTATE\FACULTATE ANUL II\WORKSPACE ACC\TEMA-2-SHORTEST-PATH-ALGORITHM\TEMA-2-SHORTEST-PATH-ALGORITHM\X64\DEBUG\MAPGRAPH.OBJ
D:\AAA - FACULTATE\FACULTATE ANUL II\WORKSPACE ACC\TEMA-2-SHORTEST-PATH-ALGORITHM\TEMA-2-SHORTEST-PATH-ALGORITHM\X64\DEBUG\MAIN.OBJ
^D:\AAA - FACULTATE\FACULTATE ANUL II\WORKSPACE ACC\TEMA-2-SHORTEST-PATH-ALGORITHM\TEMA-2-SHORTEST-PATH-ALGORITHM\MAPGRAPH.CPP
D:\AAA - FACULTATE\FACULTATE ANUL II\WORKSPACE ACC\TEMA-2-SHORTEST-PATH-ALGORITHM\TEMA-2-SHORTEST-PATH-ALGORITHM\X64\DEBUG\VC142.PDB
^D:\AAA - FACULTATE\FACULTATE ANUL II\WORKSPACE ACC\TEMA-2-SHORTEST-PATH-ALGORITHM\TEMA-2-SHORTEST-PATH-ALGORITHM\MAIN.CPP
D:\AAA - FACULTATE\FACULTATE ANUL II\WORKSPACE ACC\TEMA-2-SHORTEST-PATH-ALGORITHM\TEMA-2-SHORTEST-PATH-ALGORITHM\X64\DEBUG\VC142.PDB
D:\AAA - FACULTATE\FACULTATE ANUL II\WORKSPACE ACC\TEMA-2-SHORTEST-PATH-ALGORITHM\TEMA-2-SHORTEST-PATH-ALGORITHM\X64\DEBUG\VC142.IDB
D:\AAA - FACULTATE\FACULTATE ANUL II\WORKSPACE ACC\TEMA-2-SHORTEST-PATH-ALGORITHM\TEMA-2-SHORTEST-PATH-ALGORITHM\X64\DEBUG\MAIN.OBJ
